<svg width="24" height="24" viewBox="0 0 24 24" fill="none" xmlns="http://www.w3.org/2000/svg">
<path d="M2 14H9V15C9 15.5523 9.44772 16 10 16H14C14.5523 16 15 15.5523 15 15V14H22V19.8C22 20.4627 21.4627 21 20.8 21H3.2C2.53726 21 2 20.4627 2 19.8V14Z" fill="white"/>
<path d="M22 12H15V11C15 10.4477 14.5523 10 14 10H10C9.44772 10 9 10.4477 9 11V12L2 12L2 7.8C2 7.13726 2.53726 6.6 3.2 6.6L8.4 6.6V6C8.4 4.34315 9.74314 3 11.4 3H12.6C14.2569 3 15.6 4.34315 15.6 6V6.6L14.4 6.6V6.2C14.4 5.09543 13.5046 4.2 12.4 4.2H11.6C10.4954 4.2 9.6 5.09543 9.6 6.2V6.6L14.4 6.6L15.6 6.6L20.8 6.6C21.4627 6.6 22 7.13726 22 7.8V12Z" fill="white"/>
</svg>
