<svg width="24" height="24" viewBox="0 0 24 24" fill="none" xmlns="http://www.w3.org/2000/svg">
<path fill-rule="evenodd" clip-rule="evenodd" d="M10.6 13.8667H14.3334C15.571 13.8667 16.758 13.375 17.6332 12.4998C18.5084 11.6247 19 10.4377 19 9.2C19 7.96232 18.5084 6.77534 17.6332 5.90017C16.758 5.025 15.571 4.53333 14.3334 4.53333H9.66669C9.41915 4.53333 9.18175 4.63166 9.00672 4.8067C8.83168 4.98173 8.73335 5.21913 8.73335 5.46666V12H6.86668C6.61915 12 6.38175 12.0983 6.20671 12.2734C6.03168 12.4484 5.93335 12.6858 5.93335 12.9333C5.93335 13.1809 6.03168 13.4183 6.20671 13.5933C6.38175 13.7683 6.61915 13.8667 6.86668 13.8667H8.73335V15.7333H6.86668C6.61915 15.7333 6.38175 15.8317 6.20671 16.0067C6.03168 16.1817 5.93335 16.4191 5.93335 16.6667C5.93335 16.9142 6.03168 17.1516 6.20671 17.3266C6.38175 17.5017 6.61915 17.6 6.86668 17.6H8.73335V19.4667C8.73335 19.7142 8.83168 19.9516 9.00672 20.1266C9.18175 20.3017 9.41915 20.4 9.66669 20.4C9.91422 20.4 10.1516 20.3017 10.3267 20.1266C10.5017 19.9516 10.6 19.7142 10.6 19.4667V17.6H13.4C13.6476 17.6 13.885 17.5017 14.06 17.3266C14.235 17.1516 14.3334 16.9142 14.3334 16.6667C14.3334 16.4191 14.235 16.1817 14.06 16.0067C13.885 15.8317 13.6476 15.7333 13.4 15.7333H10.6V13.8667ZM22 12C22 17.5228 17.5228 22 12 22C6.47715 22 2 17.5228 2 12C2 6.47715 6.47715 2 12 2C17.5228 2 22 6.47715 22 12Z" fill="white"/>
<path fill-rule="evenodd" clip-rule="evenodd" d="M12 22C17.5228 22 22 17.5228 22 12C22 6.47715 17.5228 2 12 2C6.47715 2 2 6.47715 2 12C2 17.5228 6.47715 22 12 22ZM10.6 13.8667H14.3334C15.571 13.8667 16.758 13.375 17.6332 12.4998C18.5084 11.6247 19 10.4377 19 9.2C19 7.96232 18.5084 6.77534 17.6332 5.90017C16.758 5.025 15.571 4.53333 14.3334 4.53333H9.66669C9.41915 4.53333 9.18175 4.63166 9.00672 4.8067C8.83168 4.98173 8.73335 5.21913 8.73335 5.46666V12H6.86668C6.61915 12 6.38175 12.0983 6.20671 12.2734C6.03168 12.4484 5.93335 12.6858 5.93335 12.9333C5.93335 13.1809 6.03168 13.4183 6.20671 13.5933C6.38175 13.7683 6.61915 13.8667 6.86668 13.8667H8.73335V15.7333H6.86668C6.61915 15.7333 6.38175 15.8317 6.20671 16.0067C6.03168 16.1817 5.93335 16.4191 5.93335 16.6667C5.93335 16.9142 6.03168 17.1516 6.20671 17.3266C6.38175 17.5017 6.61915 17.6 6.86668 17.6H8.73335V19.4667C8.73335 19.7142 8.83168 19.9516 9.00672 20.1266C9.18175 20.3017 9.41915 20.4 9.66669 20.4C9.91422 20.4 10.1516 20.3017 10.3267 20.1266C10.5017 19.9516 10.6 19.7142 10.6 19.4667V17.6H13.4C13.6476 17.6 13.885 17.5017 14.06 17.3266C14.235 17.1516 14.3334 16.9142 14.3334 16.6667C14.3334 16.4191 14.235 16.1817 14.06 16.0067C13.885 15.8317 13.6476 15.7333 13.4 15.7333H10.6V13.8667Z" fill="white"/>
<path d="M14.3334 6.40002H10.6V12H14.3334C15.076 12 15.7882 11.705 16.3133 11.1799C16.8384 10.6548 17.1334 9.94263 17.1334 9.20003C17.1334 8.45742 16.8384 7.74523 16.3133 7.22012C15.7882 6.69502 15.076 6.40002 14.3334 6.40002Z" fill="white"/>
</svg>
